// Jest Snapshot v1, https://goo.gl/fbAQLP

exports[`RenderGuards should render error message when error occurred 1`] = `
<div>
  Error: 
  error
</div>
`;

exports[`RenderGuards should render loader when fetching 1`] = `
<div>
  ...loading
</div>
`;

exports[`RenderGuards should render message when there are no gifs 1`] = `
<div>
  No gifs for given phrase: 
  searchText
</div>
`;

exports[`should render subcomponents when data is available 1`] = `
<div
  className="alb-giphy-search"
>
  <GiphySearchInput
    debounce={500}
    onChange={[Function]}
  />
  <RenderGuards
    currentItemIndex={0}
    error={null}
    gifs={
      Array [
        Object {
          "shareUrl": "shareUrl",
          "title": "title",
          "url": "url",
        },
      ]
    }
    isFetching={false}
    onNext={[Function]}
    onPrev={[Function]}
    onSearch={[Function]}
    searchText="searchText"
  >
    <GiphySearchNavigation
      currentItemIndex={0}
      numberOfItems={1}
      onNext={[Function]}
      onPrev={[Function]}
    />
    <GiphySearchResult
      gif={
        Object {
          "shareUrl": "shareUrl",
          "title": "title",
          "url": "url",
        }
      }
    />
  </RenderGuards>
</div>
`;
